{{simplenavi>}}


====== Commuter Connections Mobile ======

  * [[ccm|Overview]]
  * [[ccm:commute_log|Commute Log]]

====== General ======
  * [[api_endpoints|API Endpoints]]
  * [[api:clog|API Commute Log]]
  *   * [[api:vip_log|VIP Log]]

====== Settings ======
[[sidebar]]